{
    "user": {
        "id": 101,
        "name": "Админ Админович",
        "email": "patlakh.sergey@gmail.com",
        "phone": null,
        "is_confirmed": 1,
        "created_at": "2021-08-09 13:27:14"
    },
    "roles": ["admin"],
    "permissions": [
        "view-users",
        "add-users",
        "edit-users",
        "delete-users",
        "view-products",
        "add-products",
        "edit-products",
        "delete-products",
        "view-products-types",
        "add-products-types",
        "edit-products-types",
        "delete-products-types",
        "view-discounts",
        "add-discounts",
        "edit-discounts",
        "delete-discounts"
    ]
}
